<?xml version="1.0" standalone="no"?>
<!DOCTYPE svg PUBLIC "-//W3C//DTD SVG 20010904//EN"
 "http://www.w3.org/TR/2001/REC-SVG-20010904/DTD/svg10.dtd">
<svg version="1.0" xmlns="http://www.w3.org/2000/svg"
 width="252.000000pt" height="252.000000pt" viewBox="0 0 252.000000 252.000000"
 preserveAspectRatio="xMidYMid meet">
<metadata>
Created by potrace 1.11, written by Peter Selinger 2001-2013
</metadata>
<g transform="translate(0.000000,252.000000) scale(0.100000,-0.100000)"
fill="#000000" stroke="none">
<path d="M1209 2506 c-3 -3 -29 -8 -59 -11 -53 -6 -65 -8 -139 -19 -19 -3 -59
-13 -90 -22 -31 -10 -59 -18 -63 -20 -5 -1 -10 -3 -13 -4 -3 -1 -8 -3 -12 -5
-40 -10 -158 -67 -165 -79 -4 -6 -8 -7 -8 -3 0 5 -13 -1 -30 -13 -16 -12 -30
-18 -30 -13 0 4 -5 0 -11 -9 -5 -10 -17 -18 -24 -18 -8 0 -15 -4 -15 -10 0 -5
-5 -10 -11 -10 -7 0 -20 -10 -30 -22 -11 -11 -19 -17 -19 -13 0 4 -19 -11 -42
-33 -23 -23 -46 -42 -51 -42 -4 0 -5 -4 -2 -10 3 -5 0 -10 -8 -10 -7 0 -20
-11 -27 -25 -7 -13 -17 -22 -22 -19 -4 3 -8 1 -8 -4 0 -5 -12 -21 -26 -36 -15
-14 -23 -26 -18 -26 5 0 4 -4 -1 -8 -13 -9 -70 -85 -69 -92 0 -3 -8 -14 -18
-24 -10 -11 -18 -26 -18 -33 0 -7 -5 -13 -11 -13 -5 0 -8 -4 -4 -9 3 -5 1 -12
-5 -16 -6 -4 -8 -11 -5 -16 4 -5 2 -9 -3 -9 -9 0 -36 -54 -32 -65 1 -3 -5 -16
-12 -28 -33 -51 -81 -255 -82 -349 -1 -27 -5 -48 -11 -48 -5 0 -3 -5 5 -10 8
-5 10 -10 4 -10 -6 0 -11 -7 -11 -15 0 -8 4 -15 8 -15 5 0 4 -12 -2 -27 -5
-14 -6 -29 -2 -32 4 -3 9 -37 11 -76 1 -38 5 -77 9 -85 3 -8 7 -24 9 -35 1
-11 5 -32 7 -48 2 -15 7 -30 10 -34 4 -3 7 -17 7 -30 0 -13 4 -23 8 -23 4 0 8
-10 9 -21 1 -12 9 -37 19 -57 9 -19 17 -41 18 -49 1 -8 8 -18 15 -22 7 -5 13
-12 13 -17 1 -16 22 -59 33 -66 5 -4 6 -8 1 -8 -5 0 -1 -9 9 -20 10 -11 14
-20 10 -20 -4 0 5 -12 21 -26 16 -15 22 -23 14 -19 -14 8 25 -42 45 -57 6 -4
7 -8 3 -8 -5 0 0 -8 10 -18 9 -11 25 -28 34 -38 9 -10 23 -24 30 -31 7 -7 18
-18 24 -25 25 -30 94 -88 104 -88 5 0 10 -4 10 -10 0 -5 13 -16 29 -25 16 -8
35 -20 43 -27 17 -17 98 -62 168 -94 30 -14 63 -30 72 -35 10 -5 27 -9 38 -9
11 0 20 -5 20 -11 0 -6 7 -9 15 -6 8 4 17 2 21 -4 3 -6 12 -8 20 -5 7 3 16 1
19 -4 3 -5 13 -9 23 -9 35 -1 52 -4 52 -10 0 -3 17 -7 38 -8 53 -3 112 -12
123 -18 5 -4 9 -2 9 2 0 5 9 9 20 9 11 0 20 -3 20 -6 0 -4 7 -7 15 -7 8 0 15
5 15 11 0 7 3 7 8 1 10 -14 32 -17 32 -5 0 7 6 7 20 0 11 -6 20 -7 20 -2 0 5
16 8 35 7 19 -2 37 0 40 4 2 4 25 7 50 7 25 -1 45 3 45 8 0 5 3 7 6 3 4 -3 22
0 40 8 19 8 34 12 34 10 0 -8 175 58 182 69 4 6 8 7 8 3 0 -16 214 112 237
142 7 9 13 12 13 8 0 -4 23 14 50 41 28 27 50 47 50 43 0 -3 9 8 20 24 11 17
20 26 20 21 0 -4 20 18 45 50 25 33 52 67 60 77 8 9 15 19 15 22 0 3 7 13 15
22 8 10 15 22 14 27 0 5 3 12 9 15 12 8 101 195 107 226 1 6 3 13 5 18 1 4 4
12 5 17 1 6 3 11 5 13 4 5 12 43 14 65 0 12 5 22 10 22 4 0 6 6 3 14 -3 8 -3
17 1 21 4 4 8 19 8 33 1 15 3 27 4 27 1 0 3 23 5 52 1 28 6 56 9 62 4 6 2 11
-4 11 -6 0 -8 5 -5 10 9 14 10 114 2 127 -4 6 -4 18 -1 26 3 8 0 18 -6 22 -9
6 -9 10 1 17 11 7 11 11 1 15 -6 2 -10 8 -8 12 3 3 -2 36 -9 71 -7 35 -11 68
-9 72 3 4 1 8 -3 8 -5 0 -15 21 -23 48 -16 56 -14 50 -28 85 -7 16 -12 33 -12
38 0 5 -5 9 -11 9 -6 0 -9 7 -5 15 3 8 -1 18 -9 22 -7 5 -14 13 -14 18 -2 21
-13 45 -20 45 -4 0 -13 16 -21 35 -8 19 -17 35 -22 35 -4 0 -8 4 -8 10 0 10
-20 37 -52 72 -10 10 -16 18 -13 18 3 0 -4 11 -17 24 -13 14 -34 37 -49 53
-32 35 -107 102 -144 128 -16 11 -40 29 -54 40 -41 33 -81 56 -81 48 0 -5 -4
-3 -8 3 -10 15 -146 79 -180 85 -4 0 -16 6 -27 12 -11 6 -29 12 -40 14 -11 2
-27 6 -35 10 -20 8 -39 12 -72 15 -16 1 -28 5 -28 8 0 6 -35 10 -122 14 -15 1
-30 5 -34 8 -4 4 -15 3 -25 -3 -11 -6 -19 -6 -19 0 0 5 -11 8 -24 7 -13 0 -22
-4 -19 -8 6 -12 -11 -10 -23 2 -6 6 -12 8 -15 6z"/>
</g>
</svg>
