<?xml version="1.0" standalone="no"?>
<!DOCTYPE svg PUBLIC "-//W3C//DTD SVG 1.1//EN" "http://www.w3.org/Graphics/SVG/1.1/DTD/svg11.dtd" >
<svg xmlns="http://www.w3.org/2000/svg">
<metadata>Generated by IcoMoon</metadata>
<defs>
<font id="icones" horiz-adv-x="1024">
<font-face units-per-em="1024" ascent="960" descent="-64" />
<missing-glyph horiz-adv-x="1024" />
<glyph unicode="&#x20;" horiz-adv-x="512" d="" />
<glyph unicode="&#xe900;" glyph-name="mail" horiz-adv-x="1015" d="M41.303 709.888c28.646-12.277 401.019-216.878 417.388-220.97 12.277-8.185 32.738-12.277 49.104-12.277s36.829 4.092 49.104 12.277c12.277 8.185 388.743 208.693 417.388 225.063 28.646 12.277 53.196 57.287 4.092 57.287h-941.168c-49.104 0-24.554-45.013 4.092-61.379v0zM986.562 599.404c-32.738-16.369-409.204-212.785-429.664-225.063-20.461-8.185-32.738-12.277-49.104-12.277s-32.738 0-49.104 12.277c-20.461 12.277-396.926 208.693-429.664 225.063-20.461 12.277-20.461 0-20.461-12.277v-409.204c0-24.554 32.738-53.196 53.196-53.196h887.971c24.554 0 53.196 28.646 53.196 53.196v409.204c4.092 12.277 4.092 24.554-16.369 12.277v0z" />
<glyph unicode="&#xe901;" glyph-name="marker" horiz-adv-x="716" d="M357.829 960c-197.948 0-357.829-159.881-357.829-357.829 0-270.275 357.829-666.171 357.829-666.171s357.829 395.896 357.829 666.171c0 197.948-159.881 357.829-357.829 357.829v0zM357.829 472.743c-68.52 0-129.428 57.1-129.428 129.428 0 68.52 60.907 129.428 129.428 129.428 72.327 0 129.428-57.1 129.428-129.428s-57.1-129.428-129.428-129.428v0z" />
<glyph unicode="&#xe902;" glyph-name="phone" d="M1024 151.365c4.063-16.254-4.063-32.508-16.254-44.698l-142.222-142.222c-8.127-8.127-16.254-12.19-24.381-20.317-12.19-4.063-20.317-8.127-32.508-8.127 0 0-4.063 0-8.127 0s-8.127 0-12.19 0c-12.19 0-36.571 4.063-65.016 8.127-32.508 4.063-69.079 16.254-113.778 36.571s-93.46 44.698-150.349 81.27c-56.889 36.571-117.841 89.397-178.794 150.349-48.762 48.762-93.46 97.524-125.968 142.222s-60.952 89.397-81.27 125.968c-20.317 40.635-36.571 73.143-44.698 105.651s-16.254 56.889-20.317 81.27c-8.127 24.381-8.127 40.635-8.127 56.889 0 12.19 0 20.317 0 20.317 0 8.127 4.063 20.317 8.127 32.508s12.19 20.317 20.317 24.381l142.222 142.222c12.19 12.19 24.381 16.254 36.571 16.254 8.127 0 16.254-4.063 24.381-8.127s12.19-12.19 20.317-20.317l113.778-219.429c8.127-12.19 12.19-24.381 8.127-36.571-4.063-16.254-8.127-28.444-20.317-36.571l-52.825-52.825c0 0-4.063-4.063-4.063-8.127s0-4.063 0-8.127c4.063-16.254 8.127-32.508 20.317-52.825 8.127-16.254 20.317-36.571 40.635-65.016 16.254-24.381 44.698-52.825 77.206-85.333s60.952-60.952 85.333-77.206c24.381-20.317 44.698-32.508 65.016-40.635 16.254-8.127 28.444-12.19 40.635-16.254l12.19-4.063c0 0 4.063 0 8.127 0s4.063 4.063 8.127 4.063l60.952 60.952c12.19 12.19 28.444 16.254 44.698 16.254 12.19 0 20.317-4.063 28.444-8.127v0l207.238-121.905c16.254 0 24.381-12.19 28.444-28.444v0z" />
<glyph unicode="&#xe903;" glyph-name="plus" d="M512 960c-284.444 0-512-227.556-512-512s227.556-512 512-512c284.444 0 512 227.556 512 512s-227.556 512-512 512zM699.733 396.8h-130.844v-136.533c0-28.444-22.756-56.889-56.889-56.889-17.067 0-28.444 5.689-39.822 17.067s-17.067 22.756-17.067 39.822v136.533h-130.844c-17.067 0-28.444 0-39.822 11.378s-11.378 22.756-11.378 39.822 22.756 56.889 56.889 56.889h136.533v130.844c0 28.444 22.756 51.2 51.2 51.2s56.889-22.756 56.889-51.2v-130.844h136.533c28.444 0 51.2-22.756 51.2-51.2-5.689-34.133-34.133-56.889-62.578-56.889z" />
<glyph unicode="&#xe904;" glyph-name="quote" horiz-adv-x="1492" d="M327.68 588.434c181.394 0 324.754-146.286 324.754-324.754s-146.286-327.68-324.754-327.68-327.68 146.286-327.68 324.754v46.811c0 359.863 292.571 652.434 652.434 652.434v-187.246c-125.806 0-242.834-46.811-330.606-134.583-17.554-17.554-32.183-35.109-46.811-52.663 17.554 0 35.109 2.926 52.663 2.926v0zM1164.434 588.434c181.394 0 324.754-146.286 324.754-324.754s-143.36-327.68-324.754-327.68c-181.394 0-324.754 146.286-324.754 324.754l-2.926 46.811c0 359.863 292.571 652.434 652.434 652.434v-187.246c-122.88 0-239.909-49.737-327.68-137.509-17.554-17.554-32.183-35.109-46.811-52.663 14.629 2.926 32.183 5.851 49.737 5.851v0z" />
<glyph unicode="&#xe905;" glyph-name="instagram" d="M870.4 908.8h-716.8c-56.32 0-102.4-46.080-102.4-102.4v-716.8c0-56.371 46.080-102.4 102.4-102.4h716.8c56.32 0 102.4 46.029 102.4 102.4v716.8c0 56.32-46.080 102.4-102.4 102.4zM511.181 165.222c156.621 0 283.546 127.027 283.546 283.597 0 17.306-2.202 33.997-5.274 50.381h80.947v-369.459c0-19.558-15.872-35.328-35.482-35.328h-645.837c-19.61 0-35.482 15.77-35.482 35.328v369.459h79.309c-3.123-16.384-5.325-33.075-5.325-50.381 0-156.621 127.027-283.597 283.597-283.597zM333.978 448.819c0 97.894 79.36 177.203 177.254 177.203 97.843 0 177.254-79.309 177.254-177.203s-79.411-177.254-177.254-177.254c-97.946 0-177.254 79.36-177.254 177.254zM834.918 652.8h-82.688c-19.558 0-35.43 15.974-35.43 35.43v82.79c0 19.558 15.872 35.379 35.379 35.379h82.688c19.661 0 35.533-15.821 35.533-35.379v-82.739c0-19.507-15.872-35.482-35.482-35.482z" />
<glyph unicode="&#xe90f;" glyph-name="facebook" horiz-adv-x="494" d="M0 621.262h105.125v101.232c0 46.722 0 116.806 35.042 159.635 35.042 46.722 81.764 77.871 163.529 77.871 132.38 0 190.783-19.468 190.783-19.468l-27.255-155.741c0 0-42.829 11.681-85.658 11.681s-77.871-15.574-77.871-54.51v-120.7h167.422l-11.681-151.848h-155.741v-533.414h-198.57v529.521h-105.125v155.741z" />
<glyph unicode="&#xe910;" glyph-name="googleplus" horiz-adv-x="989" d="M323.163-13.384c-120.7 0-210.251 77.871-210.251 171.316 0 89.551 109.019 167.422 229.719 163.529 27.255 0 54.51-3.894 77.871-11.681 66.19-46.722 112.913-70.084 128.487-124.593 3.894-11.681 3.894-23.361 3.894-31.148 3.894-97.338-58.403-167.422-229.719-167.422zM358.205 527.817c-81.764 3.894-159.635 93.445-175.209 198.57-15.574 109.019 38.935 190.783 120.7 186.89s159.635-89.551 175.209-194.677c15.574-109.019-38.935-190.783-120.7-190.783zM525.627 368.183c-27.255 19.468-81.764 70.084-81.764 97.338 0 35.042 7.787 50.616 62.297 89.551 50.616 42.829 89.551 97.338 89.551 167.422 0 81.764-35.042 159.635-101.232 182.996h101.232l66.19 54.51h-315.376c-144.061 0-276.441-109.019-276.441-233.612 0-128.487 97.338-229.719 241.399-229.719 11.681 0 19.468 0 31.148 0-7.787-19.468-15.574-38.935-15.574-58.403 0-35.042 19.468-66.19 42.829-89.551-19.468 0-35.042 0-54.51 0-175.209 0-311.483-112.913-311.483-229.719 0-112.913 147.954-186.89 327.057-186.89 202.464 0 311.483 112.913 311.483 229.719-3.894 93.445-31.148 147.954-116.806 206.357zM988.958 520.030h-124.593v124.593h-101.232v-124.593h-124.593v-101.232h124.593v-120.7h101.232v124.593h124.593v97.338z" />
<glyph unicode="&#xe911;" glyph-name="arrow-up" d="M0 448c0-282.624 229.376-512 512-512s512 229.376 512 512c0 282.624-229.376 512-512 512s-512-229.376-512-512zM548.864 685.568l180.224-180.224c8.192-8.192 12.288-20.48 12.288-32.768s-4.096-24.576-12.288-32.768c-16.384-16.384-49.152-16.384-65.536 0l-106.496 106.496v-303.104c0-24.576-20.48-45.056-45.056-45.056s-45.056 20.48-45.056 45.056v303.104l-106.496-106.496c-16.384-16.384-49.152-16.384-65.536 0s-16.384 49.152 0 65.536l180.224 180.224c8.192 8.192 24.576 16.384 36.864 12.288 16.384 4.096 28.672 0 36.864-12.288z" />
<glyph unicode="&#xe912;" glyph-name="arrow-down" d="M1024 448c0 282.624-229.376 512-512 512s-512-229.376-512-512c0-282.624 229.376-512 512-512s512 229.376 512 512zM475.136 210.432l-180.224 180.224c-8.192 8.192-12.288 20.48-12.288 32.768s4.096 24.576 12.288 32.768c16.384 16.384 49.152 16.384 65.536 0l106.496-106.496v303.104c0 24.576 20.48 45.056 45.056 45.056s45.056-20.48 45.056-45.056v-303.104l106.496 106.496c16.384 16.384 49.152 16.384 65.536 0s16.384-49.152 0-65.536l-180.224-180.224c-8.192-8.192-24.576-16.384-36.864-12.288-16.384-4.096-28.672 0-36.864 12.288z" />
<glyph unicode="&#xe913;" glyph-name="arrow-left" d="M512-64c282.624 0 512 229.376 512 512s-229.376 512-512 512c-282.624 0-512-229.376-512-512s229.376-512 512-512zM274.432 484.864l180.224 180.224c8.192 8.192 20.48 12.288 32.768 12.288s24.576-4.096 32.768-12.288c16.384-16.384 16.384-49.152 0-65.536l-106.496-106.496h303.104c24.576 0 45.056-20.48 45.056-45.056s-20.48-45.056-45.056-45.056h-303.104l106.496-106.496c16.384-16.384 16.384-49.152 0-65.536s-49.152-16.384-65.536 0l-180.224 180.224c-8.192 8.192-16.384 24.576-12.288 36.864-4.096 16.384 0 28.672 12.288 36.864z" />
<glyph unicode="&#xe914;" glyph-name="linkedin" horiz-adv-x="1113" d="M245.421-64h-215.802v693.95h215.802v-693.95zM131.174 718.81v0c-80.397 0-131.174 55.008-131.174 118.479 0 71.934 50.777 122.711 131.174 122.711s131.174-50.777 131.174-118.479c0-67.702-50.777-122.711-131.174-122.711zM1112.86-64h-245.421v359.669c0 93.091-38.083 156.562-122.711 156.562-63.471 0-101.554-42.314-118.479-84.628-4.231-16.926-4.231-33.851-4.231-55.008v-376.595h-245.421c0 0 4.231 638.942 0 693.95h245.421v-110.017c12.694 46.545 93.091 114.248 215.802 114.248 152.331 0 275.041-101.554 275.041-317.355v-380.826z" />
<glyph unicode="&#xe915;" glyph-name="arrow-right" d="M512 960c-282.624 0-512-229.376-512-512s229.376-512 512-512c282.624 0 512 229.376 512 512s-229.376 512-512 512zM749.568 411.136l-180.224-180.224c-8.192-8.192-20.48-12.288-32.768-12.288s-24.576 4.096-32.768 12.288c-16.384 16.384-16.384 49.152 0 65.536l106.496 106.496h-303.104c-24.576 0-45.056 20.48-45.056 45.056s20.48 45.056 45.056 45.056h303.104l-106.496 106.496c-16.384 16.384-16.384 49.152 0 65.536s49.152 16.384 65.536 0l180.224-180.224c8.192-8.192 16.384-24.576 12.288-36.864 4.096-16.384 0-28.672-12.288-36.864z" />
<glyph unicode="&#xe921;" glyph-name="spinner" d="M1024 448c-1.278 66.862-15.784 133.516-42.576 194.462-26.704 61-65.462 116.258-113.042 161.92-47.552 45.696-103.944 81.82-164.984 105.652-61.004 23.924-126.596 35.352-191.398 33.966-64.81-1.282-129.332-15.374-188.334-41.356-59.048-25.896-112.542-63.47-156.734-109.576-44.224-46.082-79.16-100.708-102.186-159.798-23.114-59.062-34.128-122.52-32.746-185.27 1.286-62.76 14.964-125.148 40.134-182.206 25.088-57.1 61.476-108.828 106.11-151.548 44.61-42.754 97.472-76.504 154.614-98.72 57.118-22.304 118.446-32.902 179.142-31.526 60.708 1.29 120.962 14.554 176.076 38.914 55.15 24.282 105.116 59.48 146.366 102.644 41.282 43.14 73.844 94.236 95.254 149.43 13.034 33.458 21.88 68.4 26.542 103.798 1.246-0.072 2.498-0.12 3.762-0.12 35.346 0 64 28.652 64 64 0 1.796-0.094 3.572-0.238 5.332h0.238zM922.306 278.052c-23.472-53.202-57.484-101.4-99.178-141.18-41.67-39.81-91-71.186-144.244-91.79-53.228-20.678-110.29-30.452-166.884-29.082-56.604 1.298-112.596 13.736-163.82 36.474-51.25 22.666-97.684 55.49-135.994 95.712-38.338 40.198-68.528 87.764-88.322 139.058-19.87 51.284-29.228 106.214-27.864 160.756 1.302 54.552 13.328 108.412 35.254 157.69 21.858 49.3 53.498 93.97 92.246 130.81 38.73 36.868 84.53 65.87 133.874 84.856 49.338 19.060 102.136 28.006 154.626 26.644 52.5-1.306 104.228-12.918 151.562-34.034 47.352-21.050 90.256-51.502 125.624-88.782 35.396-37.258 63.21-81.294 81.39-128.688 18.248-47.392 26.782-98.058 25.424-148.496h0.238c-0.144-1.76-0.238-3.536-0.238-5.332 0-33.012 24.992-60.174 57.086-63.624-6.224-34.822-16.53-68.818-30.78-100.992z" />
<glyph unicode="&#xe926;" glyph-name="twitter" horiz-adv-x="1263" d="M1263.252 840.374c-47.85-19.14-95.701-33.495-148.336-43.065 52.636 33.495 95.701 81.346 114.841 143.551-47.85-28.71-105.271-52.636-162.692-62.206-47.85 52.636-114.841 81.346-191.402 81.346-143.551 0-258.393-114.841-258.393-258.393 0-19.14 0-38.28 4.785-57.421-215.327 9.57-406.729 110.056-535.925 267.963-19.14-38.28-33.495-81.346-33.495-129.196 0-90.916 47.85-167.477 114.841-215.327-43.065 0-81.346 14.355-119.626 33.495v-4.785c0-124.411 90.916-229.682 205.757-253.607-19.14-4.785-38.28-9.57-62.206-9.57-14.355 0-33.495 0-47.85 4.785 33.495-105.271 129.196-177.047 244.037-181.832-90.916-71.776-200.972-110.056-320.598-110.056-19.14 0-43.065 0-62.206 4.785 114.841-71.776 248.822-114.841 397.159-114.841 478.505 0 736.897 392.374 736.897 736.897 0 9.57 0 23.925 0 33.495 43.065 33.495 90.916 81.346 124.411 133.981z" />
<glyph unicode="&#xe92a;" glyph-name="menu" d="M128 704h768v-86h-768v86zM128 406v84h768v-84h-768zM128 192v86h768v-86h-768z" />
</font></defs></svg>